ISSS608 - Take-home Exercise 3
…
ℹ Use `spec()` to retrieve the full column specification for this data.
ℹ Specify the column types or set `show_col_types = FALSE` to quiet this message.

3 Data Wraggling

our analysis commenced with the inspection of the imported data table.

Code

combined

# A tibble: 155 × 6
    Year Month   Day `Mean Temperature (°C)` `Maximum Temperature (°C)`
   <dbl> <dbl> <dbl>                   <dbl>                      <dbl>
 1  1983    10     1                    26                         27.8
 2  1983    10     2                    28.3                       32.1
 3  1983    10     3                    28.1                       31  
 4  1983    10     4                    29                         32.2
 5  1983    10     5                    29                         32.4
 6  1983    10     6                    28                         31.5
 7  1983    10     7                    26.3                       31.3
 8  1983    10     8                    27.7                       32.4
 9  1983    10     9                    28.5                       32.9
10  1983    10    10                    28.6                       33.3
# ℹ 145 more rows
# ℹ 1 more variable: `Minimum Temperature (°C)` <dbl>
…
