ISSS608 - Take-home Exercise 4 (Work-In-Progress)
…
3.2 Convert to tsibble data frame

The dataset comprises daily records of rainfall and temperature gathered from various weather stations across Singapore. Initially, this data is loaded in a ‘tibble’ format. However, for our forecasting analysis, we will be using fable package, which is part of the tidyverts ecosystem and requires data in a ‘tsibble’ format. To accommodate this requirement, we will convert our tibble dataframe into a tsibble using the following code.

weather_tsbl <- as_tsibble(weather, key = Station, index = Date)
weather_tsbl

# A tsibble: 12,045 x 15 [1D]
# Key:       Station [11]
   Station    Date        Year Month   Day `Daily Rainfall Total (mm)`
   <chr>      <date>     <dbl> <dbl> <dbl>                       <dbl>
 1 Ang Mo Kio 2021-01-01  2021     1     1                        94.4
 2 Ang Mo Kio 2021-01-02  2021     1     2                       114. 
 3 Ang Mo Kio 2021-01-03  2021     1     3                         5.2
 4 Ang Mo Kio 2021-01-04  2021     1     4                         0  
 5 Ang Mo Kio 2021-01-05  2021     1     5                         0  
 6 Ang Mo Kio 2021-01-06  2021     1     6                         0  
 7 Ang Mo Kio 2021-01-07  2021     1     7                         1.6
 8 Ang Mo Kio 2021-01-08  2021     1     8                        12.6
 9 Ang Mo Kio 2021-01-09  2021     1     9                        35.4
10 Ang Mo Kio 2021-01-10  2021     1    10                       119. 
# ℹ 12,035 more rows
# ℹ 9 more variables: `Mean Temperature (°C)` <dbl>,
#   `Maximum Temperature (°C)` <dbl>, `Minimum Temperature (°C)` <dbl>,
#   LAT <dbl>, LONG <dbl>, Date_mine <date>, Month_Name <fct>, Week <dbl>,
#   Weekday <dbl>
…
    # Exponential Smoothing forecast of the seasonally adjusted data
    STLETS = decomposition_model(stl_formula_default, ETS(season_adjust ~ season("N"))),
    
    # Holt-Winters’ additive method
    HoltWinters = ETS(`Mean Temperature (°C)` ~ error("A") + trend("A") + season("A"))
    
    # sn = SNAIVE(`Mean Temperature (°C)` ~ lag("year"))
  )

# Forecasting forward
future_horizon <- "10 days" # Adjust this to your forecast needs
full_forecast <- forecast(full_fit, h = future_horizon)
full_forecast

# A fable: 40 x 5 [1D]
# Key:     Station, .model [4]
   Station    .model   Date       `Mean Temperature (°C)` .mean
   <chr>      <chr>    <date>                      <dist> <dbl>
 1 Ang Mo Kio STLNaive 2024-01-01             N(26, 0.61)  25.7
 2 Ang Mo Kio STLNaive 2024-01-02              N(25, 1.2)  24.7
 3 Ang Mo Kio STLNaive 2024-01-03              N(26, 1.8)  25.8
 4 Ang Mo Kio STLNaive 2024-01-04              N(26, 2.4)  25.7
 5 Ang Mo Kio STLNaive 2024-01-05                N(28, 3)  27.7
 6 Ang Mo Kio STLNaive 2024-01-06              N(28, 3.6)  28.1
 7 Ang Mo Kio STLNaive 2024-01-07              N(27, 4.2)  27.0
 8 Ang Mo Kio STLNaive 2024-01-08              N(27, 4.8)  27.4
 9 Ang Mo Kio STLNaive 2024-01-09              N(27, 5.4)  26.9
10 Ang Mo Kio STLNaive 2024-01-10                N(26, 6)  26.3
# ℹ 30 more rows
…
