ISSS608 - Hands-on Exercise 5
…
What did code chunk above do?

Convert Year to character

Use pivot_wider() (replace spread()) to widens data

Sum across columns using rowSums()

Filter data for Year equal to 2018

Filter data of value greater than 0

agpop_mutated

# A tibble: 234 × 25
   PA         SZ      Year  `AGE0-4` `AGE10-14` `AGE15-19` `AGE20-24` `AGE25-29`
   <chr>      <chr>   <chr>    <dbl>      <dbl>      <dbl>      <dbl>      <dbl>
 1 Ang Mo Kio Ang Mo… 2018       180        320        300        260        300
 2 Ang Mo Kio Cheng … 2018      1060       1080       1260       1400       1880
 3 Ang Mo Kio Chong … 2018       900       1030       1220       1380       1760
 4 Ang Mo Kio Kebun … 2018       720       1010       1120       1230       1460
 5 Ang Mo Kio Sembaw… 2018       220        380        500        550        500
 6 Ang Mo Kio Shangr… 2018       550        670        780        950       1080
 7 Ang Mo Kio Tagore  2018       260        430        500        640        690
 8 Ang Mo Kio Townsv… 2018       830        930        860       1020       1400
 9 Ang Mo Kio Yio Ch… 2018       160        220        260        350        340
10 Ang Mo Kio Yio Ch… 2018       810       1300       1450       1500       1590
# ℹ 224 more rows
# ℹ 17 more variables: `AGE30-34` <dbl>, `AGE35-39` <dbl>, `AGE40-44` <dbl>,
#   `AGE45-49` <dbl>, `AGE05-9` <dbl>, `AGE50-54` <dbl>, `AGE55-59` <dbl>,
#   `AGE60-64` <dbl>, `AGE65-69` <dbl>, `AGE70-74` <dbl>, `AGE75-79` <dbl>,
#   `AGE80-84` <dbl>, AGE85over <dbl>, YOUNG <dbl>, ACTIVE <dbl>, OLD <dbl>,
#   TOTAL <dbl>
…
