ISSS608 - Take-home Exercise 1
…
2.3 Data extracting

Referring to PISA code book, it is noted that the data table include results from 81 participating countries. As this study focus on Singapore’s context, relevant observations is filtered using filter() on the country code variable “CNT”.

stu_qqq_SG <- stu_qqq %>%
  filter(CNT == "SGP")

The filtered data is then saved in R Data Format and re-imported into the working environment.

write_rds(stu_qqq_SG, "data/stu_qqq_SG.rds")

stu_qqq_SG <- read_rds("data/stu_qqq_SG.rds")
stu_qqq_SG

# A tibble: 6,606 × 1,279
   CNT   CNTRYID CNTSCHID CNTSTUID CYC   NatCen STRATUM SUBNATIO REGION  OECD
   <chr>   <dbl>    <dbl>    <dbl> <chr> <chr>  <chr>   <chr>     <dbl> <dbl>
 1 SGP       702 70200052 70200001 08MS  070200 SGP01   7020000   70200     0
 2 SGP       702 70200134 70200002 08MS  070200 SGP01   7020000   70200     0
 3 SGP       702 70200112 70200003 08MS  070200 SGP01   7020000   70200     0
 4 SGP       702 70200004 70200004 08MS  070200 SGP01   7020000   70200     0
 5 SGP       702 70200152 70200005 08MS  070200 SGP01   7020000   70200     0
 6 SGP       702 70200043 70200006 08MS  070200 SGP01   7020000   70200     0
 7 SGP       702 70200049 70200007 08MS  070200 SGP01   7020000   70200     0
 8 SGP       702 70200107 70200008 08MS  070200 SGP01   7020000   70200     0
 9 SGP       702 70200012 70200009 08MS  070200 SGP01   7020000   70200     0
10 SGP       702 70200061 70200010 08MS  070200 SGP01   7020000   70200     0
# ℹ 6,596 more rows
# ℹ 1,269 more variables: ADMINMODE <dbl>, LANGTEST_QQQ <dbl>,
#   LANGTEST_COG <dbl>, LANGTEST_PAQ <dbl>, Option_CT <dbl>, Option_FL <dbl>,
#   Option_ICTQ <dbl>, Option_WBQ <dbl>, Option_PQ <dbl>, Option_TQ <dbl>,
#   Option_UH <dbl>, BOOKID <dbl>, ST001D01T <dbl>, ST003D02T <dbl>,
#   ST003D03T <dbl>, ST004D01T <dbl>, ST250Q01JA <dbl>, ST250Q02JA <dbl>,
#   ST250Q03JA <dbl>, ST250Q04JA <dbl>, ST250Q05JA <dbl>, ST250D06JA <chr>, …
…
2.4 Summary Statistics of data table

Data table
Summary
Duplicate
Missing

stu_qqq_SG_selected

# A tibble: 6,606 × 7
   StudentID TypeofSchool Gender    ESCS  MATH  READ SCIENCE
       <dbl> <chr>         <dbl>   <dbl> <dbl> <dbl>   <dbl>
 1  70200001 SGP01             1  0.184   639.  676.    711.
 2  70200002 SGP01             2  0.826   697.  626.    671.
 3  70200003 SGP01             2 -1.04    694.  620.    666.
 4  70200004 SGP01             2 -0.961   427.  381.    340.
 5  70200005 SGP01             1  0.0856  436.  448.    456.
 6  70200006 SGP01             1  0.127   570.  469.    475.
 7  70200007 SGP01             2 -0.0154  772.  745.    694.
 8  70200008 SGP01             2  1.16    568.  527.    583.
 9  70200009 SGP01             1  1.47    740.  722.    725.
10  70200010 SGP01             2  0.520   586.  540.    590.
# ℹ 6,596 more rows
…
Following final data table is used for Exploratory data analysis:

stu_qqq_SG_converted

# A tibble: 6,559 × 8
   StudentID TypeofSchool Gender    ESCS  MATH  READ SCIENCE binned_ESCS        
   <chr>     <fct>        <fct>    <dbl> <dbl> <dbl>   <dbl> <fct>              
 1 70200001  Public       Female  0.184   639.  676.    711. Slightly Disadvant…
 2 70200002  Public       Male    0.826   697.  626.    671. Slightly Advantaged
 3 70200003  Public       Male   -1.04    694.  620.    666. Disadvantaged      
 4 70200004  Public       Male   -0.961   427.  381.    340. Disadvantaged      
 5 70200005  Public       Female  0.0856  436.  448.    456. Slightly Disadvant…
 6 70200006  Public       Female  0.127   570.  469.    475. Slightly Disadvant…
 7 70200007  Public       Male   -0.0154  772.  745.    694. Slightly Disadvant…
 8 70200008  Public       Male    1.16    568.  527.    583. Advantaged         
 9 70200009  Public       Female  1.47    740.  722.    725. Advantaged         
10 70200010  Public       Male    0.520   586.  540.    590. Slightly Advantaged
# ℹ 6,549 more rows
…
